{
    "success": true,
    "reports": [
      {
        "id": null,
        "report_id": null,
        "report_type": "Weekly Care Plan",
        "author_id": null,
        "author_first_name": "Nestor",
        "author_last_name": "Enriquez",
        "beneficiary_id": 68,
        "beneficiary_first_name": "Jaime",
        "beneficiary_last_name": "Samson",
        "created_at": "2025-07-30T16:00:00.000000Z",
        "updated_at": "2025-07-30T18:00:00.000000Z",
        "notes": null,
        "summary": null
      },
      {
        "id": null,
        "report_id": null,
        "report_type": "Weekly Care Plan",
        "author_id": null,
        "author_first_name": "Leticia",
        "author_last_name": "Hernandez",
        "beneficiary_id": 67,
        "beneficiary_first_name": "Luzviminda",
        "beneficiary_last_name": "Aquino",
        "created_at": "2025-07-30T16:00:00.000000Z",
        "updated_at": "2025-07-30T18:00:00.000000Z",
        "notes": null,
        "summary": null
      },
      {
        "id": null,
        "report_id": null,
        "report_type": "Weekly Care Plan",
        "author_id": null,
        "author_first_name": "Leticia",
        "author_last_name": "Hernandez",
        "beneficiary_id": 66,
        "beneficiary_first_name": "Ricardo",
        "beneficiary_last_name": "Tan",
        "created_at": "2025-07-30T16:00:00.000000Z",
        "updated_at": "2025-07-30T18:00:00.000000Z",
        "notes": null,
        "summary": null
      },
      {
        "id": null,
        "report_id": null,
        "report_type": "Weekly Care Plan",
        "author_id": null,
        "author_first_name": "Lilia",
        "author_last_name": "Padilla",
        "beneficiary_id": 65,
        "beneficiary_first_name": "Victor",
        "beneficiary_last_name": "Fajardo",
        "created_at": "2025-07-30T16:00:00.000000Z",
        "updated_at": "2025-07-30T18:00:00.000000Z",
        "notes": null,
        "summary": null
      },
      {
        "id": null,
        "report_id": null,
        "report_type": "Weekly Care Plan",
        "author_id": null,
        "author_first_name": "Leticia",
        "author_last_name": "Hernandez",
        "beneficiary_id": 64,
        "beneficiary_first_name": "Crisanto",
        "beneficiary_last_name": "Lim",
        "created_at": "2025-07-30T16:00:00.000000Z",
        "updated_at": "2025-07-30T18:00:00.000000Z",
        "notes": null,
        "summary": null
      },
      {
        "id": null,
        "report_id": null,
        "report_type": "Weekly Care Plan",
        "author_id": null,
        "author_first_name": "Josefa",
        "author_last_name": "De La Cruz",
        "beneficiary_id": 63,
        "beneficiary_first_name": "Josefina",
        "beneficiary_last_name": "David",
        "created_at": "2025-07-30T16:00:00.000000Z",
        "updated_at": "2025-07-30T18:00:00.000000Z",
        "notes": null,
        "summary": null
      },
      {
        "id": null,
        "report_id": null,
        "report_type": "Weekly Care Plan",
        "author_id": null,
        "author_first_name": "Lilia",
        "author_last_name": "Padilla",
        "beneficiary_id": 62,
        "beneficiary_first_name": "Loida",
        "beneficiary_last_name": "Del Rosario",
        "created_at": "2025-07-30T16:00:00.000000Z",
        "updated_at": "2025-07-30T18:00:00.000000Z",
        "notes": null,
        "summary": null
      },
      {
        "id": null,
        "report_id": null,
        "report_type": "Weekly Care Plan",
        "author_id": null,
        "author_first_name": "Raul",
        "author_last_name": "David",
        "beneficiary_id": 61,
        "beneficiary_first_name": "Aurora",
        "beneficiary_last_name": "Santiago",
        "created_at": "2025-07-30T16:00:00.000000Z",
        "updated_at": "2025-07-30T18:00:00.000000Z",
        "notes": null,
        "summary": null
      },
      {
        "id": null,
        "report_id": null,
        "report_type": "Weekly Care Plan",
        "author_id": null,
        "author_first_name": "Raul",
        "author_last_name": "David",
        "beneficiary_id": 60,
        "beneficiary_first_name": "Marilou",
        "beneficiary_last_name": "Alvarez",
        "created_at": "2025-07-30T16:00:00.000000Z",
        "updated_at": "2025-07-30T18:00:00.000000Z",
        "notes": null,
        "summary": null
      },
      {
        "id": null,
        "report_id": null,
        "report_type": "Weekly Care Plan",
        "author_id": null,
        "author_first_name": "Nestor",
        "author_last_name": "Enriquez",
        "beneficiary_id": 59,
        "beneficiary_first_name": "Roberto",
        "beneficiary_last_name": "Pascual",
        "created_at": "2025-07-30T16:00:00.000000Z",
        "updated_at": "2025-07-30T18:00:00.000000Z",
        "notes": null,
        "summary": null
      },
      {
        "id": null,
        "report_id": null,
        "report_type": "Weekly Care Plan",
        "author_id": null,
        "author_first_name": "Leticia",
        "author_last_name": "Hernandez",
        "beneficiary_id": 58,
        "beneficiary_first_name": "Felix",
        "beneficiary_last_name": "Mercado",
        "created_at": "2025-07-30T16:00:00.000000Z",
        "updated_at": "2025-07-30T18:00:00.000000Z",
        "notes": null,
        "summary": null
      },
      {
        "id": null,
        "report_id": null,
        "report_type": "Weekly Care Plan",
        "author_id": null,
        "author_first_name": "Leticia",
        "author_last_name": "Hernandez",
        "beneficiary_id": 57,
        "beneficiary_first_name": "Felipe",
        "beneficiary_last_name": "Cruz",
        "created_at": "2025-07-30T16:00:00.000000Z",
        "updated_at": "2025-07-30T18:00:00.000000Z",
        "notes": null,
        "summary": null
      },
      {
        "id": null,
        "report_id": null,
        "report_type": "Weekly Care Plan",
        "author_id": null,
        "author_first_name": "Leticia",
        "author_last_name": "Hernandez",
        "beneficiary_id": 56,
        "beneficiary_first_name": "Enrique",
        "beneficiary_last_name": "Hernandez",
        "created_at": "2025-07-30T16:00:00.000000Z",
        "updated_at": "2025-07-30T18:00:00.000000Z",
        "notes": null,
        "summary": null
      },
      {
        "id": null,
        "report_id": null,
        "report_type": "Weekly Care Plan",
        "author_id": null,
        "author_first_name": "Nestor",
        "author_last_name": "Enriquez",
        "beneficiary_id": 55,
        "beneficiary_first_name": "Jose",
        "beneficiary_last_name": "Manalaysay",
        "created_at": "2025-07-30T16:00:00.000000Z",
        "updated_at": "2025-07-30T18:00:00.000000Z",
        "notes": null,
        "summary": null
      },
      {
        "id": null,
        "report_id": null,
        "report_type": "Weekly Care Plan",
        "author_id": null,
        "author_first_name": "Nestor",
        "author_last_name": "Enriquez",
        "beneficiary_id": 54,
        "beneficiary_first_name": "Gloria",
        "beneficiary_last_name": "Flores",
        "created_at": "2025-07-30T16:00:00.000000Z",
        "updated_at": "2025-07-30T18:00:00.000000Z",
        "notes": null,
        "summary": null
      }
    ],
    "pagination": {
      "total": 4029,
      "per_page": 15,
      "current_page": 1,
      "last_page": 269
    }
  }
  